v 20111231 2
C 40000 40000 0 0 0 title-B.sym
T 50475 40750 15 16 1 0 0 0 2
Series One 2014 
Breakout Boards
T 54000 40050 15 10 1 0 0 0 1
Ronald Miloh Alexander
T 53975 40325 15 10 1 0 0 0 1
v1.0.8  -- Series 1 B01-B60
C 42550 44050 1 0 1 con_1x4.sym
{
T 42625 44200 5 10 0 1 0 6 1
refdes=CONN1
T 42950 44200 5 8 0 1 0 6 1
footprint=molex_705430038
T 42575 44400 5 14 1 1 0 6 1
value=Xmotor
T 42550 47050 5 8 0 0 0 6 1
symversion=1.0
}
C 42550 48650 1 0 1 con_1x4.sym
{
T 42625 48800 5 10 0 1 0 6 1
refdes=CONN2
T 42600 48850 5 8 0 1 0 6 1
footprint=molex_705430038
T 42375 49000 5 14 1 1 0 6 1
value=E0motor
T 42550 51650 5 8 0 0 0 6 1
symversion=1.0
}
C 42550 46400 1 0 1 con_1x4.sym
{
T 42625 46550 5 10 0 1 0 6 1
refdes=CONN3
T 42800 46600 5 8 0 1 0 6 1
footprint=molex_705430038
T 42575 46750 5 14 1 1 0 6 1
value=E1motor
T 42550 49400 5 8 0 0 0 6 1
symversion=1.0
}
C 54775 45650 1 0 0 con_1x2.sym
{
T 54750 45725 5 10 0 1 0 0 1
refdes=CONN15
T 54750 45875 5 14 1 1 0 0 1
value=Z_Endstop
T 54775 45650 5 8 1 1 0 0 1
footprint=molex_705430036
T 54775 47850 5 8 0 0 0 0 1
symversion=2.0
}
C 54775 49250 1 0 0 con_1x2.sym
{
T 54750 49425 5 10 0 1 0 0 1
refdes=CONN16
T 54775 49525 5 14 1 1 0 0 1
value=Fan1
T 54775 49300 5 8 1 1 0 0 1
footprint=molex_705430036
T 54775 51450 5 8 0 0 0 0 1
symversion=2.0
}
C 54775 47550 1 0 0 con_1x2.sym
{
T 54725 47725 5 10 0 1 0 0 1
refdes=CONN17
T 54775 47825 5 14 1 1 0 0 1
value=Fan0
T 54775 47600 5 8 1 1 0 0 1
footprint=molex_705430036
T 54775 49750 5 8 0 0 0 0 1
symversion=2.0
}
N 41650 44850 42050 44850 4
{
T 41375 44850 5 10 1 1 180 6 1
netname=XM_1B
}
N 41650 45250 42050 45250 4
{
T 41375 45250 5 10 1 1 180 6 1
netname=XM_1A
}
N 41650 45650 42050 45650 4
{
T 41400 45650 5 10 1 1 180 6 1
netname=XM_2A
}
N 41650 49450 42050 49450 4
{
T 41375 49450 5 10 1 1 180 6 1
netname=E0M_1B
}
N 41650 49850 42050 49850 4
{
T 41375 49850 5 10 1 1 180 6 1
netname=E0M_1A
}
N 41650 50250 42050 50250 4
{
T 41375 50250 5 10 1 1 180 6 1
netname=E0M_2A
}
N 41650 50650 42050 50650 4
{
T 41375 50650 5 10 1 1 180 6 1
netname=E0M_2B
}
N 41650 47200 42050 47200 4
{
T 41350 47200 5 10 1 1 180 6 1
netname=E1M_1B
}
N 41650 47600 42050 47600 4
{
T 41350 47600 5 10 1 1 180 6 1
netname=E1M_1A
}
N 41650 48000 42050 48000 4
{
T 41350 48000 5 10 1 1 180 6 1
netname=E1M_2A
}
N 41650 48400 42050 48400 4
{
T 41350 48400 5 10 1 1 180 6 1
netname=E1M_2B
}
N 55675 48350 55275 48350 4
{
T 55675 48350 5 10 1 1 180 0 1
netname=fan0
}
N 55675 48750 55275 48750 4
{
T 55875 48750 5 10 1 1 180 0 1
netname=fan0_1
}
N 55675 50050 55275 50050 4
{
T 55675 50050 5 10 1 1 180 0 1
netname=fan1
}
N 55675 50450 55275 50450 4
{
T 55825 50450 5 10 1 1 180 0 1
netname=fan1_1
}
N 55675 46450 55275 46450 4
{
T 55725 46300 5 10 1 1 0 6 1
netname=Zmin
}
N 55675 46850 55275 46850 4
{
T 55600 46725 5 10 1 1 0 6 1
netname=gnd
}
C 43525 42525 1 90 0 con_1x4.sym
{
T 43475 42500 5 10 0 1 270 8 1
refdes=CONN18
T 42650 42075 5 8 0 1 0 8 1
footprint=molex_705430038
T 41825 42475 5 14 1 1 0 8 1
value=Aux
T 40525 42525 5 8 0 0 270 8 1
symversion=1.0
}
T 54000 40425 15 10 1 0 0 0 5
E-Tray Breakout Board
connecting data signals 
and switching power 
from RAMPS/RUMBA/RAMBO

T 50100 40200 15 10 1 0 0 0 2
backplanebreakout.sch

T 50650 40100 15 10 1 0 0 0 1
1
T 51800 40100 15 10 1 0 0 0 1
1
C 46575 40800 1 0 1 con_1x2.sym
{
T 46800 40925 5 10 0 1 0 6 1
refdes=CONN14
T 48150 40825 5 10 1 1 0 6 1
footprint=molex_microfit_436500215
T 46575 43000 5 8 0 0 0 6 1
symversion=2.0
T 46225 40900 5 10 0 1 0 0 1
device=Vdc
T 46075 41025 5 14 1 1 0 0 1
value=VDC
}
N 42725 43325 42725 43025 4
{
T 42600 43550 5 10 1 1 90 8 1
netname=5v_vcc
}
N 42325 43325 42325 43025 4
{
T 42175 43500 5 10 1 1 90 8 1
netname=aux0-a
}
N 41925 43325 41925 43025 4
{
T 41775 43500 5 10 1 1 90 8 1
netname=aux0-b
}
N 41525 43325 41525 43025 4
{
T 41375 43400 5 10 1 1 90 8 1
netname=gnd
}
L 49425 40675 49425 40700 3 0 0 0 -1 -1
L 49425 40700 49425 40675 3 0 0 0 -1 -1
L 49425 40675 49425 40700 3 0 0 0 -1 -1
N 45475 44750 46325 44750 4
N 46075 44500 46325 44500 4
N 46575 44250 46325 44250 4
{
T 46325 44275 5 10 1 1 0 0 1
netname=Vin
}
N 48525 44750 50400 44750 4
N 48525 44250 50400 44250 4
N 46075 46675 46075 46875 4
{
T 46075 45950 5 10 1 1 90 0 1
netname=E0M_2B
}
N 46325 46675 46325 46875 4
{
T 46300 45950 5 10 1 1 90 0 1
netname=E0M_2A
}
N 46575 46675 46575 46875 4
{
T 46550 45950 5 10 1 1 90 0 1
netname=E0M_1A
}
N 46825 46675 46825 46875 4
{
T 46825 45950 5 10 1 1 90 0 1
netname=E0M_1B
}
N 47075 46675 47075 46875 4
{
T 47075 46475 5 10 1 1 90 0 1
netname=gnd
}
N 47325 46675 47325 46875 4
{
T 47325 45925 5 10 1 1 90 0 1
netname=E1M_2B
}
N 47575 46675 47575 46875 4
{
T 47575 45925 5 10 1 1 90 0 1
netname=E1M_2A
}
N 47825 46675 47825 46875 4
{
T 47825 45925 5 10 1 1 90 0 1
netname=E1M_1A
}
N 48075 46675 48075 46875 4
{
T 48075 45925 5 10 1 1 90 0 1
netname=E1M_1B
}
N 48325 46675 48325 46875 4
{
T 48325 46425 5 10 1 1 90 0 1
netname=gnd
}
N 48575 46675 48575 46875 4
{
T 48575 45950 5 10 1 1 90 0 1
netname=XM_2B
}
N 48825 46675 48825 46875 4
{
T 48825 45950 5 10 1 1 90 0 1
netname=XM_2A
}
N 49075 46675 49075 46875 4
{
T 49075 45950 5 10 1 1 90 0 1
netname=XM_1A
}
N 46075 49375 46075 49675 4
{
T 46075 49575 5 10 1 1 90 0 1
netname=XM_1B
}
N 46325 49375 46325 49675 4
{
T 46325 49575 5 10 1 1 90 0 1
netname=gnd
}
N 46575 49375 46575 49675 4
{
T 46575 49600 5 10 1 1 90 0 1
netname=Xmin
}
N 46825 49375 46825 49675 4
{
T 46825 49575 5 10 1 1 90 0 1
netname=fan1
}
N 47075 49375 47075 49675 4
{
T 47075 49575 5 10 1 1 90 0 1
netname=T1
}
N 47325 49375 47325 49675 4
{
T 47325 49575 5 10 1 1 90 0 1
netname=fan1_1
}
N 47575 49375 47575 49675 4
{
T 47575 49575 5 10 1 1 90 0 1
netname=fan0_1
}
N 47825 49375 47825 49675 4
{
T 47825 49575 5 10 1 1 90 0 1
netname=gnd
}
N 48075 49375 48075 49675 4
{
T 48075 49575 5 10 1 1 90 0 1
netname=fan0
}
N 48325 49375 48325 49675 4
{
T 48325 49575 5 10 1 1 90 0 1
netname=T0
}
N 48575 49375 48575 49675 4
{
T 48575 49575 5 10 1 1 90 0 1
netname=aux0-a
}
N 48825 49375 48825 49675 4
{
T 48825 49525 5 10 1 1 90 0 1
netname=aux0-b
}
N 49075 49375 49075 49675 4
{
T 49075 49525 5 10 1 1 90 0 1
netname=5v_vcc
}
C 49425 46775 1 90 0 TAM_26pin_ribbon_conn.sym
{
T 45550 47800 5 10 0 1 90 6 1
refdes=CONN19
T 45525 47175 5 10 0 0 90 0 1
device=TAM_26pin_ribbon_conn
T 45325 47175 5 10 0 0 90 0 1
footprint=EHF-113-01-XX-D
T 48450 48350 5 16 1 1 180 0 1
value=26pin_ribbon
}
C 46225 43900 1 0 0 TAM_pwrline_6pin.sym
{
T 47275 45050 5 10 1 1 0 6 1
refdes=CONN20
T 46625 45300 5 10 0 0 0 0 1
device=TAM_pwrline_6pin
T 46675 43450 5 10 1 1 0 0 1
footprint=molex_microfit_436500615
T 46725 43650 5 14 1 1 0 0 1
value=6pin24awg
}
C 43550 40500 1 90 0 con_1x4.sym
{
T 43150 40500 5 10 0 1 90 0 1
refdes=CONN21
T 43150 39950 5 12 0 1 180 0 1
footprint=molex_705430038
T 42725 40425 5 14 1 1 180 0 1
value=Thermistors
T 40550 40500 5 8 0 0 90 0 1
symversion=1.0
}
C 52200 43325 1 0 1 con_1x4.sym
{
T 52200 43275 5 10 0 1 0 6 1
refdes=CONN24
T 52100 43375 5 8 1 1 0 6 1
footprint=molex_microfit_436500415
T 51775 43550 5 14 1 1 0 6 1
value=HEATS
T 52200 46325 5 8 0 0 0 6 1
symversion=1.0
}
N 41550 41400 41550 41000 4
{
T 41500 41150 5 10 1 1 90 0 1
netname=T0
}
N 41950 41275 41950 41000 4
{
T 41950 41000 5 10 1 1 90 0 1
netname=gnd
}
N 42350 41400 42350 41000 4
{
T 42350 41225 5 10 1 1 90 0 1
netname=T1
}
N 42750 41275 42750 41000 4
{
T 42750 41000 5 10 1 1 90 0 1
netname=gnd
}
N 54125 42800 54125 43250 4
{
T 54125 42575 5 10 1 1 90 2 1
netname=Ymax
}
N 53825 42800 53825 43250 4
{
T 53800 42625 5 10 1 1 90 2 1
netname=gnd
}
N 53525 42800 53525 43250 4
{
T 53525 42600 5 10 1 1 90 2 1
netname=Zmin
}
N 53225 42800 53225 43250 4
{
T 53200 42625 5 10 1 1 90 2 1
netname=gnd
}
N 52925 42800 52925 43250 4
{
T 52925 42575 5 10 1 1 90 2 1
netname=Zmax
}
N 52625 42800 52625 43250 4
{
T 52600 42625 5 10 1 1 90 2 1
netname=gnd
}
C 52425 41800 1 270 1 connector12-1.sym
{
T 52300 42425 5 14 1 1 180 2 1
device=Endstops
T 52200 41800 5 10 0 1 90 2 1
refdes=CONN28
T 54700 41650 5 8 1 1 180 2 1
footprint=HEADER12_2
T 52425 41800 5 10 0 0 90 2 1
value=Endstops
}
N 55925 42800 55925 43250 4
{
T 55925 42575 5 10 1 1 90 2 1
netname=Xmin
}
N 55625 42800 55625 43250 4
{
T 55600 42625 5 10 1 1 90 2 1
netname=gnd
}
N 55325 42800 55325 43250 4
{
T 55325 42575 5 10 1 1 90 2 1
netname=Xmax
}
N 55025 42800 55025 43250 4
{
T 55000 42625 5 10 1 1 90 2 1
netname=gnd
}
N 54725 42800 54725 43250 4
{
T 54725 42600 5 10 1 1 90 2 1
netname=Ymin
}
N 54425 42800 54425 43250 4
{
T 54400 42625 5 10 1 1 90 2 1
netname=gnd
}
C 54775 43975 1 0 0 con_1x2.sym
{
T 54775 44375 5 10 0 1 0 0 1
refdes=CONN29
T 54775 44225 5 14 1 1 0 0 1
value=Y_Endstop
T 54725 43975 5 8 1 1 0 0 1
footprint=molex_705430036
T 54775 46175 5 8 0 0 0 0 1
symversion=2.0
}
N 55575 44775 55275 44775 4
{
T 55725 44650 5 10 1 1 0 6 1
netname=Ymax
}
N 55575 45175 55275 45175 4
{
T 55575 45050 5 10 1 1 0 6 1
netname=gnd
}
N 42050 46050 41625 46050 4
{
T 41375 45925 5 10 1 1 0 0 1
netname=XM_2B
}
N 46075 42000 46075 44500 4
N 45475 44750 45475 41600 4
N 51700 44125 50400 44125 4
{
T 50500 44175 5 10 1 1 0 0 1
netname=HE0 (-) Black
}
N 50400 44125 50400 44250 4
N 51700 44925 50400 44925 4
{
T 50375 44975 5 8 1 1 0 0 1
netname=HE1(-)Black
}
N 50400 44925 50400 44750 4
N 49175 44500 51700 44525 4
{
T 50500 44575 5 10 1 1 0 0 1
netname=HE0(+)Orange
}
N 51700 45325 49175 45325 4
{
T 49025 44500 5 10 0 1 0 0 1
netname=Vin
T 50350 45375 5 8 1 1 0 0 1
netname=HE1(+) Orange
}
N 49175 45325 49175 44500 4
N 45475 41600 46075 41600 4
T 41675 41125 9 10 1 0 90 0 1
Purple
T 42075 41225 9 10 1 0 90 0 1
Black
T 42875 41150 9 10 1 0 90 0 1
Black
T 40900 46075 9 10 1 0 0 0 1
Black
T 40900 45675 9 10 1 0 0 0 1
Green
T 40925 45275 9 10 1 0 0 0 1
Red
T 42475 41125 9 10 1 0 90 0 1
Purple
T 40925 44875 9 10 1 0 0 0 1
Blue
T 40900 48375 9 10 1 0 0 0 1
Black
T 40900 47975 9 10 1 0 0 0 1
Green
T 40925 47575 9 10 1 0 0 0 1
Red
T 40925 47175 9 10 1 0 0 0 1
Blue
T 40900 50600 9 10 1 0 0 0 1
Black
T 40900 50200 9 10 1 0 0 0 1
Green
T 40900 49800 9 10 1 0 0 0 1
Red
T 40900 49400 9 10 1 0 0 0 1
Blue
T 55525 50450 9 10 1 0 0 0 1
Black
T 55550 50050 9 10 1 0 0 0 1
Red
T 55575 48750 9 10 1 0 0 0 1
Black
T 55600 48350 9 10 1 0 0 0 1
Red
T 49600 41575 9 10 1 0 0 0 4
2x12 0.100" standard pitch header 
pin block. For V1.0.0 models, Pin 1
is physically located at upper right 
of block with respect to the silk name.
B 44975 42900 4875 7325 3 0 0 0 -1 -1 0 -1 -1 -1 -1 -1
T 45275 44225 9 18 1 0 90 0 2
6 & 26 WAY RIBBON 
CONNECTORS OUT TO GANTRY PCB
T 41400 48850 9 10 1 0 0 0 1
molex_SL_705430038
T 41600 46600 9 10 1 0 0 0 1
molex_SL_705430038
T 41750 44200 9 10 1 0 0 0 1
molex_SL_705430038
T 41375 42150 9 10 1 0 0 0 1
molex_SL_705430038
T 41400 40050 9 10 1 0 0 0 1
molex_SL_705430038
T 45775 50275 9 22 1 0 0 0 1
OUT  TO  GANTRY
T 50300 47900 9 13 1 0 0 0 6
Incoming wires attach to 0.100"
or 3mm headers populated with
standard pins (0.100"), 
Molex SL (0.100" grid), and
Molex Micro Fit 3.0 (3mm or 0.118" 
used for current carrying capability)
T 50400 49550 9 16 1 0 0 0 3
INCOMING WIRING FROM 
RAMPS / RUMBA /
RAMBO / ETC
T 55750 46375 9 10 1 0 0 0 1
Yellow
T 55750 46775 9 10 1 0 0 0 1
Black
T 55725 44700 9 10 1 0 0 0 1
White
T 55725 45100 9 10 1 0 0 0 1
Black
T 53300 43250 9 10 1 0 90 0 1
Black
T 55700 43250 9 10 1 0 90 0 1
Black
T 53900 43250 9 10 1 0 90 0 1
Black
T 54225 43250 9 10 1 0 90 0 1
White
T 53625 43250 9 10 1 0 90 0 1
Yellow
T 56025 43250 9 10 1 0 90 0 1
Gray
N 49175 44500 48525 44500 4
T 53200 46775 9 10 1 0 180 0 4
{*NP} = Not Populated
These connections are not populated
on the stock single extruder model
Series One 2014
T 42525 43675 9 8 1 0 90 0 1
{*NP}
T 40700 48325 9 8 1 0 180 0 1
{*NP}
T 42850 41675 9 8 1 0 90 0 1
{*NP}
T 40750 48150 9 21 1 0 0 0 1
{
T 56100 50250 9 8 1 0 0 0 1
{*NP}
T 56100 50475 9 21 1 0 180 0 1
}
T 42375 43675 9 21 1 0 270 0 1
{
T 41725 43650 9 8 1 0 90 0 1
{*NP}
T 41575 43650 9 21 1 0 270 0 1
{
T 46800 41875 9 8 1 0 180 6 1
{*NP}
T 46775 41975 9 21 1 0 180 0 1
}
T 54075 44350 9 8 1 0 90 6 1
{*NP}
T 53925 43900 9 21 1 0 270 0 1
{
T 53400 44325 9 8 1 0 90 6 1
{*NP}
T 53250 43900 9 21 1 0 270 0 1
{
T 56450 45075 9 8 1 0 180 6 1
{*NP}
T 56425 45175 9 21 1 0 180 0 1
}
T 56500 46700 9 8 1 0 180 6 1
{*NP}
T 56475 46825 9 21 1 0 180 0 1
}
T 52400 45275 9 8 1 0 180 6 1
{*NP}
T 52375 45375 9 21 1 0 180 0 1
}
T 42475 41700 9 8 1 0 90 0 1
{*NP}
T 40750 47500 9 8 1 0 180 0 1
{*NP}
T 40800 47325 9 21 1 0 0 0 1
{
B 50200 45850 4050 5025 3 0 0 0 -1 -1 0 -1 -1 -1 -1 -1
T 50400 50550 9 20 1 0 0 0 1
NOTES
L 50200 50500 54250 50500 3 0 0 0 -1 -1
T 50300 47000 9 10 1 0 0 0 4
Wiring colors are suggested and deployed by
Type A Machines, always check pin number
and signal for correct connections when
deploying alterations or upgrades
